{
	"servicesListInvest": [
		{
			"background": "content/services/bg/services_image_01.jpg",
			"title": "Citi Priority<small><sup>*</sup></small><br />Удобное банковское обслуживание без привычных комиссий<small><sup>2</sup></small>",
			"list": [
				{
					"img": "content/services/icons/icon-money.svg", "text": "Бесплатное снятие наличных в&nbsp;банкоматах по&nbsp;всему миру&nbsp;<sup>3</sup>"
				},
				{
					"img": "content/services/icons/icon-card.svg", "text": "1&nbsp;карта = 10&nbsp;мировых валют (доллары США, евро, британские фунты, швейцарские франки и&nbsp;др.)"
				},
				{
					"img": "content/services/icons/icon-piggy.svg", "text": "Бонусные баллы c&nbsp;каждой покупкой&nbsp;<sup>4</sup>"
				}
			]
		}
	],
	"servicesListGold": [
		{
			"background": "content/services/bg/services_image_02.jpg",
			"title": "Citigold&nbsp;&mdash; эксклюзивный банковский сервис.",
			"list": [
				{
					"img": "content/services/icons/icon-man.svg", "text": "Индивидуальный подход: персональный менеджер и&nbsp;инновационные Сitigold отделения"
				},
				{
					"img": "content/services/icons/icon-card.svg", "text": "Бесплатный доступ в&nbsp;бизнес-залы аэропортов<sup>6</sup>, страховка для путешественников<sup>7</sup>, бесплатный трансфер в&nbsp;аэропорты<sup>8,9</sup>"
				},
				{
					"img": "content/services/icons/icon-bull.svg", "text": "Доступ к&nbsp;российским и&nbsp;международным инвестиционным инструментам<sup>10</sup>"
				}
			]
		}
	]
}