<svg version="1.1" xmlns="http://www.w3.org/2000/svg" xmlns:xlink="http://www.w3.org/1999/xlink" x="0px" y="0px" viewBox="0 0 130 130" enable-background="new 0 0 130 130" xml:space="preserve">
	<path fill="#ffffff" d="M72.3,25.4c-0.1-0.3-0.6-1.3-1.7-2.3c-1-0.8-2.8-1.8-5.7-1.8c-4.6,0-6.8,2.6-7.4,4.1 c-0.5,1.3,0.2,2.7,1.5,3.2c1.3,0.5,2.7-0.1,3.2-1.4c0.1-0.2,0.7-1,2.7-1c2.1,0,2.6,0.8,2.7,1c0.4,0.9,1.3,1.5,2.3,1.5 c0.3,0,0.6-0.1,0.9-0.2C72.1,28.2,72.8,26.7,72.3,25.4z"/>
	<path fill="#ffffff" d="M124,69.3l-11.2-5.7v-1.4c0-1.4-1.1-2.5-2.5-2.5c-1,0-1.9,0.6-2.3,1.5L97.7,56v-1.3c0-1.4-1.1-2.5-2.5-2.5 c-1,0-1.8,0.6-2.2,1.4L77,45.5c0.3-10.2,0.5-17.7,0.5-19.2c0-3.1-1.2-7.3-3-10.6c-2.5-4.5-5.9-7-9.5-7s-7,2.5-9.5,7 c-1.8,3.3-3,7.5-3,10.6c0,1.4,0.2,9.1,0.5,19.3l-15.7,8c-0.4-0.8-1.3-1.4-2.2-1.4c-1.4,0-2.5,1.1-2.5,2.5V56l-10.3,5.2 c-0.4-0.9-1.3-1.5-2.3-1.5c-1.4,0-2.5,1.1-2.5,2.5v1.4L6,69.3c-0.8,0.4-1.4,1.3-1.4,2.2v10.1c0,0.8,0.3,1.5,0.9,1.9 c0.5,0.4,1,0.6,1.6,0.6c0.2,0,0.3,0,0.5-0.1l45.9-9.6c0.2,6.4,0.4,12.7,0.5,18.4l-13.3,9.3c-0.7,0.5-1.1,1.2-1.1,2.1v10.1 c0,0.8,0.4,1.6,1,2c0.4,0.3,0.9,0.5,1.5,0.5c0.3,0,0.5,0,0.8-0.1l11.6-3.9c0,0.8,0,1.4,0,1.6c0,1.4,1.2,2.4,2.5,2.4h5l0,0 c0,1.4,1.1,2.5,2.5,2.5c1.4,0,2.5-1.1,2.5-2.5l0,0h5c1.4,0,2.5-1.1,2.5-2.4c0-0.2,0-0.8,0.1-1.7l11.8,4c0.3,0.1,0.5,0.1,0.8,0.1 c0.5,0,1-0.2,1.5-0.5c0.7-0.5,1-1.2,1-2v-10.1c0-0.8-0.4-1.6-1.1-2.1l-13.5-9.4c0.2-5.6,0.4-11.9,0.5-18.3l46.2,9.6 c0.2,0,0.3,0.1,0.5,0.1c0.6,0,1.1-0.2,1.6-0.6c0.6-0.5,0.9-1.2,0.9-1.9V71.5C125.3,70.6,124.8,69.7,124,69.3z M85.1,105.5v5.2 l-9.7-3.3l0.3-8.6L85.1,105.5z M9.7,78.5v-5.4L53,51.1c0.2,5.7,0.3,12,0.5,18.3L9.7,78.5z M44.9,110.8v-5.2l9.5-6.6 c0.1,3.3,0.2,6.2,0.3,8.6L44.9,110.8z M67.4,111.8V99.2c0-1.4-1.1-2.5-2.5-2.5c-1.4,0-2.5,1.1-2.5,2.5v12.6h-2.6 c0-0.7,0-1.5-0.1-2.5c0,0,0-0.1,0-0.1l-0.4-15.1c0-0.1,0-0.2,0-0.3c-0.7-24.9-1.9-64.2-1.9-67.5c0-4.2,3.4-12.6,7.5-12.6 c4.1,0,7.5,8.3,7.5,12.6c0,4.4-2,71.7-2.4,85.5L67.4,111.8L67.4,111.8z M120.3,78.5l-44-9.2c0.2-6.3,0.4-12.6,0.5-18.3l43.5,22.1 V78.5z"/>
</svg>
