<svg version="1.1" xmlns="http://www.w3.org/2000/svg" xmlns:xlink="http://www.w3.org/1999/xlink" x="0px" y="0px" viewBox="-49 141 512 512" style="enable-background:new -49 141 512 512;" xml:space="preserve">
	<path fill="#ae9054" d="M249.126,329.597c-19.954,0-38.385,6.224-53.47,16.85H97.473c-5.058,0-8.427,3.369-8.427,8.427 c0,5.053,3.369,8.422,8.427,8.422h80.023c-8.022,9.749-14.083,21.178-17.592,33.704H97.473c-5.058,0-8.427,3.369-8.427,8.422 c0,5.058,3.369,8.427,8.427,8.427h59.355c-0.246,2.772-0.38,5.583-0.38,8.422c0,8.775,1.205,17.25,3.457,25.277H97.473 c-5.058,0-8.427,3.369-8.427,8.427c0,5.053,3.369,8.422,8.427,8.422h68.997c15.278,30.068,46.459,50.553,82.656,50.553 c51.396,0,92.677-41.282,92.677-92.678C341.803,370.88,300.516,329.597,249.126,329.597L249.126,329.597z M249.126,498.1 c-42.126,0-75.83-33.699-75.83-75.825c0-4.826,0.463-9.53,1.312-14.102c0.149-0.525,0.255-1.089,0.317-1.672 c3.747-17.977,13.793-33.53,27.755-44.304c0.67-0.371,1.292-0.834,1.841-1.38c12.491-9.044,27.875-14.371,44.604-14.371 c42.125,0,75.828,33.699,75.828,75.828C324.954,464.401,291.25,498.1,249.126,498.1L249.126,498.1z M249.126,498.1"/>
	<path fill="#ae9054" d="M295.464,380.989c-4.213-2.526-9.27-1.682-11.796,2.531l-44.652,67.401l-26.12-26.12c-3.369-3.369-8.422-3.369-11.796,0 c-3.371,3.371-3.371,8.427,0,11.797l33.703,33.698c1.682,1.688,3.37,2.531,5.896,2.531c3.371,0,5.897-1.687,6.74-4.214 l50.553-75.828C300.516,388.573,299.678,383.52,295.464,380.989L295.464,380.989z M295.464,380.989"/>
	<path fill="#ae9054" d="M409.206,144.242H80.618c-23.589,0-42.125,18.537-42.125,42.126v345.435h-58.976c-14.323,0-25.276,10.953-25.276,25.277 v42.126c0,27.802,22.751,50.553,50.553,50.553h320.16c12.635,0,24.433-5.058,33.699-13.484 c10.953-9.266,16.849-22.746,16.849-37.068v-337.01h58.979c14.324,0,25.277-10.953,25.277-25.276v-42.126 C459.758,166.992,437.008,144.242,409.206,144.242L409.206,144.242z M4.794,632.903c-18.537,0-33.704-15.162-33.704-33.698V557.08 c0-4.213,3.37-8.427,8.427-8.427h294.884v50.553c0,12.635,4.213,24.432,12.635,33.698H4.794z M358.653,194.794v404.411 c0,10.109-4.213,18.536-10.953,25.276c-6.34,4.932-13.861,8.085-21.569,8.495c-0.385-0.043-0.771-0.073-1.176-0.073 c-5.718,0-11.107-1.441-15.832-3.977c-10.568-5.964-17.872-17.771-17.872-31.409V540.23c0-5.056-3.369-8.427-8.422-8.427H55.347 V186.368c0-14.324,10.948-25.277,25.271-25.277h290.675c-1.625,1.987-3.119,4.089-4.489,6.287 c-4.734,7.28-7.656,15.837-8.09,25.025C358.671,193.194,358.653,193.993,358.653,194.794L358.653,194.794z M442.903,236.92 c0,4.213-3.369,8.427-8.422,8.427h-58.979v-50.553c0-18.537,15.167-33.704,33.704-33.704c18.536,0,33.698,15.167,33.698,33.704 V236.92z M442.903,236.92"/>
	<path fill="#ae9054" d="M156.447,211.643h101.105c5.051,0,8.422-3.369,8.422-8.422c0-5.058-3.371-8.427-8.422-8.427H156.447 c-5.058,0-8.427,3.369-8.427,8.422C148.02,208.274,151.39,211.643,156.447,211.643L156.447,211.643z M156.447,211.643"/>
	<path fill="#ae9054" d="M97.473,262.196h219.054c5.058,0,8.427-3.369,8.427-8.427c0-5.053-3.369-8.422-8.427-8.422H97.473 c-5.058,0-8.427,3.369-8.427,8.422C89.046,258.827,92.415,262.196,97.473,262.196L97.473,262.196z M97.473,262.196"/>
	<path fill="#ae9054" d="M97.473,312.749h219.054c5.058,0,8.427-3.369,8.427-8.427c0-5.058-3.369-8.427-8.427-8.427H97.473 c-5.058,0-8.427,3.369-8.427,8.427C89.046,309.379,92.415,312.749,97.473,312.749L97.473,312.749z M97.473,312.749"/>
</svg>